{"albums": {"href": "https://api.spotify.com/v1/browse/new-releases?country=EC&offset=0&limit=20", "items": [{"album_type": "single", "artists": [{"external_urls": {"spotify": "https://open.spotify.com/artist/4nDoRrQiYLoBzwC5BhVJzF"}, "href": "https://api.spotify.com/v1/artists/4nDoRrQiYLoBzwC5BhVJzF", "id": "4nDoRrQiYLoBzwC5BhVJzF", "name": "Camila Cabello", "type": "artist", "uri": "spotify:artist:4nDoRrQiYLoBzwC5BhVJzF"}], "available_markets": ["AD", "AR", "AT", "AU", "BE", "BG", "BO", "BR", "CA", "CH", "CL", "CO", "CR", "CY", "CZ", "DE", "DK", "DO", "EC", "EE", "ES", "FI", "FR", "GB", "GR", "GT", "HK", "HN", "HU", "ID", "IE", "IS", "IT", "JP", "LI", "LT", "LU", "LV", "MC", "MT", "MX", "MY", "NI", "NL", "NO", "NZ", "PA", "PE", "PH", "PL", "PT", "PY", "SE", "SG", "SK", "SV", "TR", "TW", "US", "UY"], "external_urls": {"spotify": "https://open.spotify.com/album/3Eh8juJMtjYOS4ryAtMDFJ"}, "href": "https://api.spotify.com/v1/albums/3Eh8juJMtjYOS4ryAtMDFJ", "id": "3Eh8juJMtjYOS4ryAtMDFJ", "images": [{"height": 640, "url": "https://i.scdn.co/image/16bf22e42bedaa2fef3323ad02e7858a2405eb1f", "width": 640}, {"height": 300, "url": "https://i.scdn.co/image/8762ce89b123327e508204a372cba7530b4469ce", "width": 300}, {"height": 64, "url": "https://i.scdn.co/image/5a110e8185ffb3ceafaf07b1f0460cf172e78d78", "width": 64}], "name": "OMG", "type": "album", "uri": "spotify:album:3Eh8juJMtjYOS4ryAtMDFJ"}, {"album_type": "single", "artists": [{"external_urls": {"spotify": "https://open.spotify.com/artist/5n9bMYfz9qss2VOW89EVs2"}, "href": "https://api.spotify.com/v1/artists/5n9bMYfz9qss2VOW89EVs2", "id": "5n9bMYfz9qss2VOW89EVs2", "name": "Bomba Est\u00e9reo", "type": "artist", "uri": "spotify:artist:5n9bMYfz9qss2VOW89EVs2"}], "available_markets": ["AD", "AR", "AT", "AU", "BE", "BG", "BO", "BR", "CA", "CH", "CL", "CO", "CR", "CY", "CZ", "DE", "DK", "DO", "EC", "EE", "ES", "FI", "FR", "GB", "GR", "GT", "HK", "HN", "HU", "ID", "IE", "IS", "IT", "JP", "LI", "LT", "LU", "LV", "MC", "MT", "MX", "MY", "NI", "NL", "NO", "NZ", "PA", "PE", "PH", "PL", "PT", "PY", "SE", "SG", "SK", "SV", "TR", "TW", "US", "UY"], "external_urls": {"spotify": "https://open.spotify.com/album/1TD0ETALm0ohisvsojFAGF"}, "href": "https://api.spotify.com/v1/albums/1TD0ETALm0ohisvsojFAGF", "id": "1TD0ETALm0ohisvsojFAGF", "images": [{"height": 640, "url": "https://i.scdn.co/image/50aa1c2e65bec0c5f7e54a64f39eee4cc59549d5", "width": 640}, {"height": 300, "url": "https://i.scdn.co/image/382436d4a6a397167a2e62df84d02dbbae198d0c", "width": 300}, {"height": 64, "url": "https://i.scdn.co/image/85100f2233892d31918c15b5ae63d18c661a6d62", "width": 64}], "name": "Internacionales", "type": "album", "uri": "spotify:album:1TD0ETALm0ohisvsojFAGF"}, {"album_type": "single", "artists": [{"external_urls": {"spotify": "https://open.spotify.com/artist/0tmwSHipWxN12fsoLcFU3B"}, "href": "https://api.spotify.com/v1/artists/0tmwSHipWxN12fsoLcFU3B", "id": "0tmwSHipWxN12fsoLcFU3B", "name": "Manuel Turizo", "type": "artist", "uri": "spotify:artist:0tmwSHipWxN12fsoLcFU3B"}], "available_markets": ["AD", "AR", "AT", "AU", "BE", "BG", "BO", "BR", "CA", "CH", "CL", "CO", "CR", "CY", "CZ", "DE", "DK", "DO", "EC", "EE", "ES", "FI", "FR", "GB", "GR", "GT", "HK", "HN", "HU", "ID", "IE", "IS", "IT", "JP", "LI", "LT", "LU", "LV", "MC", "MT", "MX", "MY", "NI", "NL", "NO", "NZ", "PA", "PE", "PH", "PL", "PT", "PY", "SE", "SG", "SK", "SV", "TR", "TW", "US", "UY"], "external_urls": {"spotify": "https://open.spotify.com/album/1aqMDYqmHfVbNpd0vkTxRh"}, "href": "https://api.spotify.com/v1/albums/1aqMDYqmHfVbNpd0vkTxRh", "id": "1aqMDYqmHfVbNpd0vkTxRh", "images": [{"height": 640, "url": "https://i.scdn.co/image/eb981f599e4d103d62fa65177800af29e9bff36d", "width": 640}, {"height": 300, "url": "https://i.scdn.co/image/be7b642f8d7a067ee4d75a42897974ea3e50fa51", "width": 300}, {"height": 64, "url": "https://i.scdn.co/image/673892b6518087eb098254ee6331bf6a27b497c8", "width": 64}], "name": "Una Lady Como T\u00fa (Remix)", "type": "album", "uri": "spotify:album:1aqMDYqmHfVbNpd0vkTxRh"}, {"album_type": "single", "artists": [{"external_urls": {"spotify": "https://open.spotify.com/artist/00me4Ke1LsvMxt5kydlMyU"}, "href": "https://api.spotify.com/v1/artists/00me4Ke1LsvMxt5kydlMyU", "id": "00me4Ke1LsvMxt5kydlMyU", "name": "Cosculluela", "type": "artist", "uri": "spotify:artist:00me4Ke1LsvMxt5kydlMyU"}], "available_markets": ["CA", "MX", "US"], "external_urls": {"spotify": "https://open.spotify.com/album/2O6V8mYV5S021qfTH8odYK"}, "href": "https://api.spotify.com/v1/albums/2O6V8mYV5S021qfTH8odYK", "id": "2O6V8mYV5S021qfTH8odYK", "images": [{"height": 640, "url": "https://i.scdn.co/image/06248dfebba3488352587f5de8cf98f3ec3b5e3e", "width": 640}, {"height": 300, "url": "https://i.scdn.co/image/2d1d1f7b1d5cbe64d74d6e4905627fadee3b894c", "width": 300}, {"height": 64, "url": "https://i.scdn.co/image/f310011971d5edba634345a43f5cb51608eb3a2a", "width": 64}], "name": "Un D\u00eda", "type": "album", "uri": "spotify:album:2O6V8mYV5S021qfTH8odYK"}, {"album_type": "single", "artists": [{"external_urls": {"spotify": "https://open.spotify.com/artist/6T5tfhQCknKG4UnH90qGnz"}, "href": "https://api.spotify.com/v1/artists/6T5tfhQCknKG4UnH90qGnz", "id": "6T5tfhQCknKG4UnH90qGnz", "name": "DNCE", "type": "artist", "uri": "spotify:artist:6T5tfhQCknKG4UnH90qGnz"}, {"external_urls": {"spotify": "https://open.spotify.com/artist/4V8Sr092TqfHkfAA5fXXqG"}, "href": "https://api.spotify.com/v1/artists/4V8Sr092TqfHkfAA5fXXqG", "id": "4V8Sr092TqfHkfAA5fXXqG", "name": "Luis Fonsi", "type": "artist", "uri": "spotify:artist:4V8Sr092TqfHkfAA5fXXqG"}], "available_markets": ["CA", "MX", "US"], "external_urls": {"spotify": "https://open.spotify.com/album/6HgplugVwkEz7vJxvfasAR"}, "href": "https://api.spotify.com/v1/albums/6HgplugVwkEz7vJxvfasAR", "id": "6HgplugVwkEz7vJxvfasAR", "images": [{"height": 640, "url": "https://i.scdn.co/image/2f6dbed732141a560933db7ec055bfc4e176eb55", "width": 640}, {"height": 300, "url": "https://i.scdn.co/image/a569953f4edbda879bbbcf600b6fb64861d0f521", "width": 300}, {"height": 64, "url": "https://i.scdn.co/image/d3dddf4657f85c12b09a246b4eec923245b37aed", "width": 64}], "name": "Kissing Strangers (Remix)", "type": "album", "uri": "spotify:album:6HgplugVwkEz7vJxvfasAR"}, {"album_type": "single", "artists": [{"external_urls": {"spotify": "https://open.spotify.com/artist/64M6ah0SkkRsnPGtGiRAbb"}, "href": "https://api.spotify.com/v1/artists/64M6ah0SkkRsnPGtGiRAbb", "id": "64M6ah0SkkRsnPGtGiRAbb", "name": "Bebe Rexha", "type": "artist", "uri": "spotify:artist:64M6ah0SkkRsnPGtGiRAbb"}, {"external_urls": {"spotify": "https://open.spotify.com/artist/13y7CgLHjMVRMDqxdx0Xdo"}, "href": "https://api.spotify.com/v1/artists/13y7CgLHjMVRMDqxdx0Xdo", "id": "13y7CgLHjMVRMDqxdx0Xdo", "name": "Gucci Mane", "type": "artist", "uri": "spotify:artist:13y7CgLHjMVRMDqxdx0Xdo"}, {"external_urls": {"spotify": "https://open.spotify.com/artist/17lzZA2AlOHwCwFALHttmp"}, "href": "https://api.spotify.com/v1/artists/17lzZA2AlOHwCwFALHttmp", "id": "17lzZA2AlOHwCwFALHttmp", "name": "2 Chainz", "type": "artist", "uri": "spotify:artist:17lzZA2AlOHwCwFALHttmp"}], "available_markets": ["AD", "AR", "AT", "AU", "BE", "BG", "BO", "BR", "CA", "CH", "CL", "CO", "CR", "CY", "CZ", "DE", "DK", "DO", "EC", "EE", "ES", "FI", "FR", "GB", "GR", "GT", "HK", "HN", "HU", "ID", "IE", "IS", "IT", "JP", "LI", "LT", "LU", "LV", "MC", "MT", "MX", "MY", "NI", "NL", "NO", "NZ", "PA", "PE", "PH", "PL", "PT", "PY", "SE", "SG", "SK", "SV", "TR", "TW", "US", "UY"], "external_urls": {"spotify": "https://open.spotify.com/album/2dIVuSU6EmGNRHAHcofkUG"}, "href": "https://api.spotify.com/v1/albums/2dIVuSU6EmGNRHAHcofkUG", "id": "2dIVuSU6EmGNRHAHcofkUG", "images": [{"height": 640, "url": "https://i.scdn.co/image/545c06b001914b40b047cb1d619365d3e3ed5682", "width": 640}, {"height": 300, "url": "https://i.scdn.co/image/75d054c8094804e4b5d5f7950aab2cac35559788", "width": 300}, {"height": 64, "url": "https://i.scdn.co/image/6fc36e14ec318be263d3d884938cbabd1fb04152", "width": 64}], "name": "That's It (feat. Gucci Mane & 2 Chainz)", "type": "album", "uri": "spotify:album:2dIVuSU6EmGNRHAHcofkUG"}, {"album_type": "single", "artists": [{"external_urls": {"spotify": "https://open.spotify.com/artist/2ayNSoKPCRAfjp6hQ76hRu"}, "href": "https://api.spotify.com/v1/artists/2ayNSoKPCRAfjp6hQ76hRu", "id": "2ayNSoKPCRAfjp6hQ76hRu", "name": "Nacho", "type": "artist", "uri": "spotify:artist:2ayNSoKPCRAfjp6hQ76hRu"}, {"external_urls": {"spotify": "https://open.spotify.com/artist/0eHQ9o50hj6ZDNBt6Ys1sD"}, "href": "https://api.spotify.com/v1/artists/0eHQ9o50hj6ZDNBt6Ys1sD", "id": "0eHQ9o50hj6ZDNBt6Ys1sD", "name": "Yandel", "type": "artist", "uri": "spotify:artist:0eHQ9o50hj6ZDNBt6Ys1sD"}, {"external_urls": {"spotify": "https://open.spotify.com/artist/4q3ewBCX7sLwd24euuV69X"}, "href": "https://api.spotify.com/v1/artists/4q3ewBCX7sLwd24euuV69X", "id": "4q3ewBCX7sLwd24euuV69X", "name": "Bad Bunny", "type": "artist", "uri": "spotify:artist:4q3ewBCX7sLwd24euuV69X"}], "available_markets": ["CA", "MX", "US"], "external_urls": {"spotify": "https://open.spotify.com/album/0BBs6GycSWEt2A2Ymw5I8f"}, "href": "https://api.spotify.com/v1/albums/0BBs6GycSWEt2A2Ymw5I8f", "id": "0BBs6GycSWEt2A2Ymw5I8f", "images": [{"height": 640, "url": "https://i.scdn.co/image/aa34eaa2c3d839dd0167e839fbc80f1b650d9674", "width": 640}, {"height": 300, "url": "https://i.scdn.co/image/3261d45895f21f78318dca9e5b5d43ea11087055", "width": 300}, {"height": 64, "url": "https://i.scdn.co/image/c2d9a179a955be32d04b8daa80731a0966ab7ed8", "width": 64}], "name": "B\u00e1ilame (Remix)", "type": "album", "uri": "spotify:album:0BBs6GycSWEt2A2Ymw5I8f"}, {"album_type": "single", "artists": [{"external_urls": {"spotify": "https://open.spotify.com/artist/53XhwfbYqKCa1cC15pYq2q"}, "href": "https://api.spotify.com/v1/artists/53XhwfbYqKCa1cC15pYq2q", "id": "53XhwfbYqKCa1cC15pYq2q", "name": "Imagine Dragons", "type": "artist", "uri": "spotify:artist:53XhwfbYqKCa1cC15pYq2q"}], "available_markets": ["CA", "MX", "US"], "external_urls": {"spotify": "https://open.spotify.com/album/22y98JB7rKhh335uj6nDZ4"}, "href": "https://api.spotify.com/v1/albums/22y98JB7rKhh335uj6nDZ4", "id": "22y98JB7rKhh335uj6nDZ4", "images": [{"height": 640, "url": "https://i.scdn.co/image/3880df2b96e574d5d25f1aab7a235823bd3f8b35", "width": 640}, {"height": 300, "url": "https://i.scdn.co/image/beaf2f95fec4e25d2b8164b2dba60a055d90e8b7", "width": 300}, {"height": 64, "url": "https://i.scdn.co/image/368478c89ad8ce1d34c32b262c923336d339a55f", "width": 64}], "name": "Live At AllSaints Studios", "type": "album", "uri": "spotify:album:22y98JB7rKhh335uj6nDZ4"}, {"album_type": "single", "artists": [{"external_urls": {"spotify": "https://open.spotify.com/artist/1xU878Z1QtBldR7ru9owdU"}, "href": "https://api.spotify.com/v1/artists/1xU878Z1QtBldR7ru9owdU", "id": "1xU878Z1QtBldR7ru9owdU", "name": "Phoenix", "type": "artist", "uri": "spotify:artist:1xU878Z1QtBldR7ru9owdU"}], "available_markets": ["AD", "AR", "AT", "BE", "BG", "BO", "BR", "CH", "CL", "CO", "CR", "CY", "CZ", "DE", "DK", "DO", "EC", "EE", "ES", "FI", "FR", "GB", "GR", "GT", "HK", "HN", "HU", "ID", "IE", "IS", "IT", "JP", "LI", "LT", "LU", "LV", "MC", "MT", "MX", "MY", "NI", "NL", "NO", "PA", "PE", "PH", "PL", "PT", "PY", "SE", "SG", "SK", "SV", "TR", "TW", "UY"], "external_urls": {"spotify": "https://open.spotify.com/album/2XNi0qwkcg3aqMyulE4hTI"}, "href": "https://api.spotify.com/v1/albums/2XNi0qwkcg3aqMyulE4hTI", "id": "2XNi0qwkcg3aqMyulE4hTI", "images": [{"height": 640, "url": "https://i.scdn.co/image/022ac1ce7ef8622dd07076d6ff2c56e9217f0bcd", "width": 640}, {"height": 300, "url": "https://i.scdn.co/image/0d4329688739713f09df8835b6a6dda81f929324", "width": 300}, {"height": 64, "url": "https://i.scdn.co/image/f0d3ac9b644abda08227c0f6af2a6705744e922b", "width": 64}], "name": "Spotify Singles", "type": "album", "uri": "spotify:album:2XNi0qwkcg3aqMyulE4hTI"}, {"album_type": "single", "artists": [{"external_urls": {"spotify": "https://open.spotify.com/artist/3AQRLZ9PuTAozP28Skbq8V"}, "href": "https://api.spotify.com/v1/artists/3AQRLZ9PuTAozP28Skbq8V", "id": "3AQRLZ9PuTAozP28Skbq8V", "name": "The Script", "type": "artist", "uri": "spotify:artist:3AQRLZ9PuTAozP28Skbq8V"}], "available_markets": ["AD", "AR", "AT", "AU", "BE", "BG", "BO", "BR", "CA", "CH", "CL", "CO", "CR", "CY", "CZ", "DE", "DK", "DO", "EC", "EE", "ES", "FI", "FR", "GB", "GR", "GT", "HK", "HN", "HU", "ID", "IE", "IS", "IT", "JP", "LI", "LT", "LU", "LV", "MC", "MT", "MX", "MY", "NI", "NL", "NO", "NZ", "PA", "PE", "PH", "PL", "PT", "PY", "SE", "SG", "SK", "SV", "TR", "TW", "US", "UY"], "external_urls": {"spotify": "https://open.spotify.com/album/0KPHIYuuiICFD6MBpDBY4h"}, "href": "https://api.spotify.com/v1/albums/0KPHIYuuiICFD6MBpDBY4h", "id": "0KPHIYuuiICFD6MBpDBY4h", "images": [{"height": 640, "url": "https://i.scdn.co/image/d3d77e02109d4803e2aae530468365ee23f2a470", "width": 640}, {"height": 300, "url": "https://i.scdn.co/image/972980a4f170bf1718acd42889480f924832e3a1", "width": 300}, {"height": 64, "url": "https://i.scdn.co/image/f65d9033e13f1ffdbae6b08c5549457916e76401", "width": 64}], "name": "Rain (Saga WhiteBlack Remix)", "type": "album", "uri": "spotify:album:0KPHIYuuiICFD6MBpDBY4h"}, {"album_type": "single", "artists": [{"external_urls": {"spotify": "https://open.spotify.com/artist/7keGfmQR4X5w0two1xKZ7d"}, "href": "https://api.spotify.com/v1/artists/7keGfmQR4X5w0two1xKZ7d", "id": "7keGfmQR4X5w0two1xKZ7d", "name": "Kungs", "type": "artist", "uri": "spotify:artist:7keGfmQR4X5w0two1xKZ7d"}], "available_markets": ["CA", "MX", "US"], "external_urls": {"spotify": "https://open.spotify.com/album/0EPvxI0pyNDT0X9pJ9YU2V"}, "href": "https://api.spotify.com/v1/albums/0EPvxI0pyNDT0X9pJ9YU2V", "id": "0EPvxI0pyNDT0X9pJ9YU2V", "images": [{"height": 640, "url": "https://i.scdn.co/image/db13e204e789ac1edb60a5dcd8581b2d52872597", "width": 640}, {"height": 300, "url": "https://i.scdn.co/image/34bc710c14099eeda45a7fec5161767f1462204e", "width": 300}, {"height": 64, "url": "https://i.scdn.co/image/08c80250d81d4069fde1a3c74ae100a2a734b3d2", "width": 64}], "name": "More Mess", "type": "album", "uri": "spotify:album:0EPvxI0pyNDT0X9pJ9YU2V"}, {"album_type": "single", "artists": [{"external_urls": {"spotify": "https://open.spotify.com/artist/329e4yvIujISKGKz1BZZbO"}, "href": "https://api.spotify.com/v1/artists/329e4yvIujISKGKz1BZZbO", "id": "329e4yvIujISKGKz1BZZbO", "name": "Farruko", "type": "artist", "uri": "spotify:artist:329e4yvIujISKGKz1BZZbO"}], "available_markets": ["AD", "AR", "AT", "AU", "BE", "BG", "BO", "BR", "CA", "CH", "CL", "CO", "CR", "CY", "CZ", "DE", "DK", "DO", "EC", "EE", "ES", "FI", "FR", "GB", "GR", "GT", "HK", "HN", "HU", "ID", "IE", "IS", "IT", "JP", "LI", "LT", "LU", "LV", "MC", "MT", "MX", "MY", "NI", "NL", "NO", "NZ", "PA", "PE", "PH", "PL", "PT", "PY", "SE", "SG", "SK", "SV", "TR", "TW", "US", "UY"], "external_urls": {"spotify": "https://open.spotify.com/album/12ur1YABdYbe0eWHWTx2k4"}, "href": "https://api.spotify.com/v1/albums/12ur1YABdYbe0eWHWTx2k4", "id": "12ur1YABdYbe0eWHWTx2k4", "images": [{"height": 640, "url": "https://i.scdn.co/image/31102448e2418edeafe3cbf3e44ed03863fb50eb", "width": 640}, {"height": 300, "url": "https://i.scdn.co/image/62abe391d3dd8cc651688ac8a71448eed116f9a8", "width": 300}, {"height": 64, "url": "https://i.scdn.co/image/72c94f8728ce2c7243725325c3cbff606a33b212", "width": 64}], "name": "Krippy Kush", "type": "album", "uri": "spotify:album:12ur1YABdYbe0eWHWTx2k4"}, {"album_type": "single", "artists": [{"external_urls": {"spotify": "https://open.spotify.com/artist/354fUDKAlUUsUfuC1Riike"}, "href": "https://api.spotify.com/v1/artists/354fUDKAlUUsUfuC1Riike", "id": "354fUDKAlUUsUfuC1Riike", "name": "Astros de Mendoza", "type": "artist", "uri": "spotify:artist:354fUDKAlUUsUfuC1Riike"}, {"external_urls": {"spotify": "https://open.spotify.com/artist/2F9pvj94b52wGKs0OqiNi2"}, "href": "https://api.spotify.com/v1/artists/2F9pvj94b52wGKs0OqiNi2", "id": "2F9pvj94b52wGKs0OqiNi2", "name": "Babas\u00f3nicos", "type": "artist", "uri": "spotify:artist:2F9pvj94b52wGKs0OqiNi2"}], "available_markets": ["AD", "AR", "AT", "AU", "BE", "BG", "BO", "BR", "CA", "CH", "CL", "CO", "CR", "CY", "CZ", "DE", "DK", "DO", "EC", "EE", "ES", "FI", "FR", "GB", "GR", "GT", "HK", "HN", "HU", "ID", "IE", "IS", "IT", "JP", "LI", "LT", "LU", "LV", "MC", "MT", "MX", "MY", "NI", "NL", "NO", "NZ", "PA", "PE", "PH", "PL", "PT", "PY", "SE", "SG", "SK", "SV", "TR", "TW", "US", "UY"], "external_urls": {"spotify": "https://open.spotify.com/album/52ee9RUeO0Bj2nuu9pUr1A"}, "href": "https://api.spotify.com/v1/albums/52ee9RUeO0Bj2nuu9pUr1A", "id": "52ee9RUeO0Bj2nuu9pUr1A", "images": [{"height": 640, "url": "https://i.scdn.co/image/d1304d028d3bf78375824310bff0bb3b8c83d38a", "width": 640}, {"height": 300, "url": "https://i.scdn.co/image/a23241442e43e28341c23c146a6c767b1c238803", "width": 300}, {"height": 64, "url": "https://i.scdn.co/image/b249dc6f2fbe383d09985351a776403e177ec5ff", "width": 64}], "name": "Putita (Re-Edit)", "type": "album", "uri": "spotify:album:52ee9RUeO0Bj2nuu9pUr1A"}, {"album_type": "single", "artists": [{"external_urls": {"spotify": "https://open.spotify.com/artist/4ssUf5gLb1GBLxi1BhPrVt"}, "href": "https://api.spotify.com/v1/artists/4ssUf5gLb1GBLxi1BhPrVt", "id": "4ssUf5gLb1GBLxi1BhPrVt", "name": "Jorge Drexler", "type": "artist", "uri": "spotify:artist:4ssUf5gLb1GBLxi1BhPrVt"}], "available_markets": ["AD", "AR", "AT", "AU", "BE", "BG", "BO", "BR", "CA", "CH", "CL", "CO", "CR", "CY", "CZ", "DE", "DK", "DO", "EC", "EE", "ES", "FI", "FR", "GB", "GR", "GT", "HK", "HN", "HU", "ID", "IE", "IS", "IT", "JP", "LI", "LT", "LU", "LV", "MC", "MT", "MX", "MY", "NI", "NL", "NO", "NZ", "PA", "PE", "PH", "PL", "PT", "PY", "SE", "SG", "SK", "SV", "TR", "TW", "US", "UY"], "external_urls": {"spotify": "https://open.spotify.com/album/5njxoXpZ5WtZlHcoaZDLot"}, "href": "https://api.spotify.com/v1/albums/5njxoXpZ5WtZlHcoaZDLot", "id": "5njxoXpZ5WtZlHcoaZDLot", "images": [{"height": 640, "url": "https://i.scdn.co/image/86c6ec06bf50fd0de7cf8f06777ed17ab898fb23", "width": 640}, {"height": 300, "url": "https://i.scdn.co/image/e43e570448a89d376f4dcefacf671e9d34b798fc", "width": 300}, {"height": 64, "url": "https://i.scdn.co/image/689c68541a3866f259eb65194c32118c585031a5", "width": 64}], "name": "Silencio", "type": "album", "uri": "spotify:album:5njxoXpZ5WtZlHcoaZDLot"}, {"album_type": "single", "artists": [{"external_urls": {"spotify": "https://open.spotify.com/artist/0OROVBEZCocg0FcgJpyBse"}, "href": "https://api.spotify.com/v1/artists/0OROVBEZCocg0FcgJpyBse", "id": "0OROVBEZCocg0FcgJpyBse", "name": "Alex Sensation", "type": "artist", "uri": "spotify:artist:0OROVBEZCocg0FcgJpyBse"}, {"external_urls": {"spotify": "https://open.spotify.com/artist/1i8SpTcr7yvPOmcqrbnVXY"}, "href": "https://api.spotify.com/v1/artists/1i8SpTcr7yvPOmcqrbnVXY", "id": "1i8SpTcr7yvPOmcqrbnVXY", "name": "Ozuna", "type": "artist", "uri": "spotify:artist:1i8SpTcr7yvPOmcqrbnVXY"}], "available_markets": ["AD", "AR", "AT", "AU", "BE", "BG", "BO", "BR", "CH", "CL", "CO", "CR", "CY", "CZ", "DE", "DK", "DO", "EC", "EE", "ES", "FI", "FR", "GB", "GR", "GT", "HK", "HN", "HU", "ID", "IE", "IS", "IT", "JP", "LI", "LT", "LU", "LV", "MC", "MT", "MY", "NI", "NL", "NO", "NZ", "PA", "PE", "PH", "PL", "PT", "PY", "SE", "SG", "SK", "SV", "TR", "TW", "UY"], "external_urls": {"spotify": "https://open.spotify.com/album/4Gg6AePYbLIIjkYbK3reJU"}, "href": "https://api.spotify.com/v1/albums/4Gg6AePYbLIIjkYbK3reJU", "id": "4Gg6AePYbLIIjkYbK3reJU", "images": [{"height": 640, "url": "https://i.scdn.co/image/48dba7d77a29ae33040a4598a5bc063d177fb664", "width": 640}, {"height": 300, "url": "https://i.scdn.co/image/3d0c5e3c701e015d98955b191e62aaee266618e0", "width": 300}, {"height": 64, "url": "https://i.scdn.co/image/1b20ce02b6245fdb487f2aee6d8bcaf60ca3fb6c", "width": 64}], "name": "Que Va", "type": "album", "uri": "spotify:album:4Gg6AePYbLIIjkYbK3reJU"}, {"album_type": "single", "artists": [{"external_urls": {"spotify": "https://open.spotify.com/artist/6g0mn3tzAds6aVeUYRsryU"}, "href": "https://api.spotify.com/v1/artists/6g0mn3tzAds6aVeUYRsryU", "id": "6g0mn3tzAds6aVeUYRsryU", "name": "The War On Drugs", "type": "artist", "uri": "spotify:artist:6g0mn3tzAds6aVeUYRsryU"}], "available_markets": ["AD", "AR", "AT", "AU", "BE", "BG", "BO", "BR", "CA", "CH", "CL", "CO", "CR", "CY", "CZ", "DE", "DK", "DO", "EC", "EE", "ES", "FI", "FR", "GB", "GR", "GT", "HK", "HN", "HU", "ID", "IE", "IS", "IT", "JP", "LI", "LT", "LU", "LV", "MC", "MT", "MX", "MY", "NI", "NL", "NO", "NZ", "PA", "PE", "PH", "PL", "PT", "PY", "SE", "SG", "SK", "SV", "TR", "TW", "US", "UY"], "external_urls": {"spotify": "https://open.spotify.com/album/0NKJ8Qdf5xupLG38XUrZch"}, "href": "https://api.spotify.com/v1/albums/0NKJ8Qdf5xupLG38XUrZch", "id": "0NKJ8Qdf5xupLG38XUrZch", "images": [{"height": 640, "url": "https://i.scdn.co/image/4774c4437ff327617a2fb57ddac5bb7addb4face", "width": 640}, {"height": 300, "url": "https://i.scdn.co/image/0368dea81db86043e75b62604b9e9b274af287f9", "width": 300}, {"height": 64, "url": "https://i.scdn.co/image/94ddbce0291c58f6431f52b69820376391c75544", "width": 64}], "name": "Pain", "type": "album", "uri": "spotify:album:0NKJ8Qdf5xupLG38XUrZch"}, {"album_type": "album", "artists": [{"external_urls": {"spotify": "https://open.spotify.com/artist/02BFiwJ2Lobf8GCaEOeKoF"}, "href": "https://api.spotify.com/v1/artists/02BFiwJ2Lobf8GCaEOeKoF", "id": "02BFiwJ2Lobf8GCaEOeKoF", "name": "Alice True Colors", "type": "artist", "uri": "spotify:artist:02BFiwJ2Lobf8GCaEOeKoF"}], "available_markets": ["AD", "AR", "AT", "AU", "BE", "BG", "BO", "BR", "CA", "CH", "CL", "CO", "CR", "CY", "CZ", "DE", "DK", "DO", "EC", "EE", "ES", "FI", "FR", "GB", "GR", "GT", "HK", "HN", "HU", "ID", "IE", "IS", "IT", "JP", "LI", "LT", "LU", "LV", "MC", "MT", "MX", "MY", "NI", "NL", "NO", "NZ", "PA", "PE", "PH", "PL", "PT", "PY", "SE", "SG", "SK", "SV", "TR", "TW", "US", "UY"], "external_urls": {"spotify": "https://open.spotify.com/album/0y1irnznca01oE3oFYL1Ok"}, "href": "https://api.spotify.com/v1/albums/0y1irnznca01oE3oFYL1Ok", "id": "0y1irnznca01oE3oFYL1Ok", "images": [{"height": 640, "url": "https://i.scdn.co/image/12bc859f1f7745ae1e2ebbdd45c7d44039c6cb1e", "width": 640}, {"height": 300, "url": "https://i.scdn.co/image/5287529b0a1291a959a489bbea0adeba1450c8ea", "width": 300}, {"height": 64, "url": "https://i.scdn.co/image/ec2a9ea9e29e75a0c9771934566b8a80510f9039", "width": 64}], "name": "Tropical Deco", "type": "album", "uri": "spotify:album:0y1irnznca01oE3oFYL1Ok"}, {"album_type": "single", "artists": [{"external_urls": {"spotify": "https://open.spotify.com/artist/5l9wiTZVfqQTfMDOt0HtwC"}, "href": "https://api.spotify.com/v1/artists/5l9wiTZVfqQTfMDOt0HtwC", "id": "5l9wiTZVfqQTfMDOt0HtwC", "name": "Tiga", "type": "artist", "uri": "spotify:artist:5l9wiTZVfqQTfMDOt0HtwC"}], "available_markets": ["AD", "AR", "AT", "AU", "BE", "BG", "BO", "BR", "CA", "CH", "CL", "CO", "CR", "CY", "CZ", "DE", "DK", "DO", "EC", "EE", "ES", "FI", "FR", "GB", "GR", "GT", "HK", "HN", "HU", "ID", "IE", "IS", "IT", "JP", "LI", "LT", "LU", "LV", "MC", "MT", "MX", "MY", "NI", "NL", "NO", "NZ", "PA", "PE", "PH", "PL", "PT", "PY", "SE", "SG", "SK", "SV", "TR", "TW", "US", "UY"], "external_urls": {"spotify": "https://open.spotify.com/album/0S45x5c43bBgsbxV9q9ufn"}, "href": "https://api.spotify.com/v1/albums/0S45x5c43bBgsbxV9q9ufn", "id": "0S45x5c43bBgsbxV9q9ufn", "images": [{"height": 640, "url": "https://i.scdn.co/image/2584b896b271bb3960ffc5cdfa0d7a37ba798759", "width": 640}, {"height": 300, "url": "https://i.scdn.co/image/ac89af9bef715ed505deb416bb7911d1b0b507d4", "width": 300}, {"height": 64, "url": "https://i.scdn.co/image/361d6aae574f5024790b6c6f08769cd439cf22d1", "width": 64}], "name": "Woke", "type": "album", "uri": "spotify:album:0S45x5c43bBgsbxV9q9ufn"}, {"album_type": "single", "artists": [{"external_urls": {"spotify": "https://open.spotify.com/artist/6xq8uO5PE2Vs9G6OsIicin"}, "href": "https://api.spotify.com/v1/artists/6xq8uO5PE2Vs9G6OsIicin", "id": "6xq8uO5PE2Vs9G6OsIicin", "name": "Clemente Castillo", "type": "artist", "uri": "spotify:artist:6xq8uO5PE2Vs9G6OsIicin"}], "available_markets": ["AD", "AR", "AT", "AU", "BE", "BG", "BO", "BR", "CA", "CH", "CL", "CO", "CR", "CY", "CZ", "DE", "DK", "DO", "EC", "EE", "ES", "FI", "FR", "GB", "GR", "GT", "HK", "HN", "HU", "ID", "IE", "IS", "IT", "JP", "LI", "LT", "LU", "LV", "MC", "MT", "MX", "MY", "NI", "NL", "NO", "NZ", "PA", "PE", "PH", "PL", "PT", "PY", "SE", "SG", "SK", "SV", "TR", "TW", "US", "UY"], "external_urls": {"spotify": "https://open.spotify.com/album/4H7Wzuc8dvIR3TSorH0Yp5"}, "href": "https://api.spotify.com/v1/albums/4H7Wzuc8dvIR3TSorH0Yp5", "id": "4H7Wzuc8dvIR3TSorH0Yp5", "images": [{"height": 640, "url": "https://i.scdn.co/image/ad9ceaff3ceb09eb09cc02a1b3e9abd7f2bfa63d", "width": 640}, {"height": 300, "url": "https://i.scdn.co/image/3fb222b881062bb71a8ed310f26b05959a4ce785", "width": 300}, {"height": 64, "url": "https://i.scdn.co/image/b1955c8a91a6a3681b2480ab2e63bb15c8829d3b", "width": 64}], "name": "Pel\u00edcula", "type": "album", "uri": "spotify:album:4H7Wzuc8dvIR3TSorH0Yp5"}, {"album_type": "single", "artists": [{"external_urls": {"spotify": "https://open.spotify.com/artist/7H1x26DjjmPhCysVsGRrXf"}, "href": "https://api.spotify.com/v1/artists/7H1x26DjjmPhCysVsGRrXf", "id": "7H1x26DjjmPhCysVsGRrXf", "name": "Protistas", "type": "artist", "uri": "spotify:artist:7H1x26DjjmPhCysVsGRrXf"}], "available_markets": ["AD", "AR", "AT", "AU", "BE", "BG", "BO", "BR", "CA", "CH", "CL", "CO", "CR", "CY", "CZ", "DE", "DK", "DO", "EC", "EE", "ES", "FI", "FR", "GB", "GR", "GT", "HK", "HN", "HU", "ID", "IE", "IS", "IT", "JP", "LI", "LT", "LU", "LV", "MC", "MT", "MX", "MY", "NI", "NL", "NO", "NZ", "PA", "PE", "PH", "PL", "PT", "PY", "SE", "SG", "SK", "SV", "TR", "TW", "US", "UY"], "external_urls": {"spotify": "https://open.spotify.com/album/71wJeVS08bjydONIVxs0qv"}, "href": "https://api.spotify.com/v1/albums/71wJeVS08bjydONIVxs0qv", "id": "71wJeVS08bjydONIVxs0qv", "images": [{"height": 640, "url": "https://i.scdn.co/image/5befaa1d4d98eb2c6287b93baed0137af9158f01", "width": 640}, {"height": 300, "url": "https://i.scdn.co/image/7a7285dbb6be6a6ea9ce0869125626787644db4a", "width": 300}, {"height": 64, "url": "https://i.scdn.co/image/5a4d66b423a10ad0fd1cb92c6d119b006a523d60", "width": 64}], "name": "Entre los Dos No Sumamos Uno", "type": "album", "uri": "spotify:album:71wJeVS08bjydONIVxs0qv"}], "limit": 20, "next": "https://api.spotify.com/v1/browse/new-releases?country=EC&offset=20&limit=20", "offset": 0, "previous": null, "total": 500}}